[
  {
    "name": "Тошка",
    "link": "/toshka"
  },
  {
    "name": "Рыжик",
    "link": "/rizhik"
  },
  {
    "name": "Корица",
    "link": "/corica"
  },
  {
    "name": "Тося и Настюша",
    "link": "/tosya-nastysha"
  },
  {
    "name": "Тишка",
    "link": "/tishka"
  }
]